<?xml version="1.0" encoding="UTF-8"?>
<svg xmlns="http://www.w3.org/2000/svg" xmlns:xlink="http://www.w3.org/1999/xlink" width="163pt" height="163pt" viewBox="0 0 163 163" version="1.1">
<g id="surface1">
<path style=" stroke:none;fill-rule:nonzero;fill:rgb(100%,100%,100%);fill-opacity:1;" d="M 43.03125 20.847656 L 119.984375 20.847656 C 132.238281 20.847656 142.167969 30.78125 142.167969 43.03125 L 142.167969 119.984375 C 142.167969 132.238281 132.238281 142.167969 119.984375 142.167969 L 43.03125 142.167969 C 30.78125 142.167969 20.847656 132.238281 20.847656 119.984375 L 20.847656 43.03125 C 20.847656 30.78125 30.78125 20.847656 43.03125 20.847656 Z M 43.03125 20.847656 "/>
</g>
</svg>
